Cashbox Magazine Song Chart Analysis - Zekun Wang's Blog | Data Science
…
Count the number of each word.

word_count <- title_words %>%
  filter(word != "") %>%
  anti_join(stop_words,by = "word") %>%
  group_by(word) %>%
  summarise(number = n()) %>%
  arrange(desc(number)) %>%
  mutate(word = str_to_upper(word))
word_count

## # A tibble: 1,192 x 2
##    word  number
##    <chr>  <int>
##  1 LOVE      87
##  2 GIRL      43
##  3 TIME      29
##  4 LIFE      21
##  5 DAY       20
##  6 WORLD     15
##  7 BABY      14
##  8 DANCE     14
##  9 ROCK      14
## 10 SONG      14
## # … with 1,182 more rows
…
